-------------------------------------------------------------------------------
Test set: myatos.AppTest
-------------------------------------------------------------------------------
Tests run: 1, Failures: 0, Errors: 0, Skipped: 0, Time elapsed: 0.026 s - in myatos.AppTest
